[
    {
        "name": "potato",
        "lastDrawingDate": "12 12 1996",
        "lastEntryDate": "12 10 1995",
        "minReOrderLimit": "5",
        "quantity" : "6",
        "unit" : "kg"
    },
    {
        "name": "tomato",
        "lastDrawingDate": "12 12 1996",
        "lastEntryDate": "12 10 1995",
        "minReOrderLimit": "5",
        "quantity" : "6",
        "unit" : "kg"
    }
]